{
  "baseUrl": "http://15.207.101.104:8221/",
  "integrationFolder": "cypress/integration/supplier-portal/tests/",
  "fixturesFolder": "cypress/fixtures/supplier-portal",
  "defaultCommandTimeout": 10000,
  "requestTimeout": 10000,
  "pageLoadTimeout": 80000,
  "taskTimeout": 300000,
  "chromeWebSecurity": false,
  "blockHosts": [
    "*.optimizely.**",
    "www.googletagmanager.com",
    "www.google-analytics.com",
    "*.qualaroo.**",
    "s3.amazonaws.com",
    "bam.nr-data.net**"
  ],
  "env": {
    "ENVIRONMENT": "supplier_portal",
    "URL": "http://15.207.101.104:8221/",
    "CYPRESS_EP_USER_EMAIL": "shirisha.k@trimindtech.com",
    "CYPRESS_EP_USER_PASSWORD": "test12345",
    "token" : "Bearer shirisha.k@trimindtech.com",
    "db": {
      "host": "65.0.181.162",
      "user": "eprocure",
      "password": "eProcure1234"
    }
  },

  "viewportWidth": 1600,
  "viewportHeight": 660,

  "retries": {
    "runMode": 2,
    "openMode": 0
  },
  "reporter": "../node_modules/mochawesome/src/mochawesome.js",
  "reporterOptions": {
    "overwrite": false,
    "html": false,
    "json": true,
    "ignoreTestFiles": [
      "*.routines.js"
    ]
  }
}
