{
  "specName": "product-module.js",
  "title": "Validate the At least one Price Details required ",
  "suiteName": "Application login",
  "testId": "r10",
  "testName": "Application login Validate the At least one Price Details required ",
  "testError": "Timed out retrying after 4050ms: `cy.click()` failed because this element is not visible:\n\n`<button _ngcontent-vyf-c161=\"\" ptooltip=\"Delete\" tooltipposition=\"bottom\" class=\"pad-mar-zero\">...</button>`\n\nThis element `<button.pad-mar-zero>` is not visible because its parent `<div#p-tabpanel-17.p-tabview-panel.ng-star-inserted>` has CSS property: `display: none`\n\nFix this problem, or use `{force: true}` to disable error checking.",
  "testCommands": [
    "contains Price",
    "click ",
    "get [ptooltip=\"Delete\"]",
    "click "
  ]
}
