{
  "specName": "catalog-buying.js",
  "title": "Check created POR ",
  "suiteName": "CataogueBuying module tests",
  "testId": "r5",
  "testName": "CataogueBuying module tests Check created POR ",
  "testError": "Timed out retrying after 4000ms: Expected to find content: ' PO Requisition Listing ' but never did.",
  "testCommands": [
    "contains  PO Requisition Listing "
  ]
}
