{
  "specName": "product-module.js",
  "title": "SP - validate Deletion the product",
  "suiteName": "Application login",
  "testId": "r5",
  "testName": "Application login SP - validate Deletion the product",
  "testError": "Timed out retrying after 10000ms: Expected to find element: `.p-confirm-dialog-accept > .p-button-icon`, but never found it.",
  "testCommands": [
    "get [data-test-class=\"href inventory\"]",
    "click ",
    "new url http://15.207.101.104:8221/inventory/product/product-list",
    "xhr  GET http://15.207.101.104:8221/api/supplier-procurement-service/product?sort=lastModifiedDate,desc&page=NaN&size=undefined",
    "wait 3000",
    "contains Product",
    "click ",
    "contains Samsung Galaxy Tab A7",
    "parent [data-test-class=\"td viewProduct\"]",
    "siblings [data-test-class=\"td product\"]",
    "children [data-test-class=\"tbl-chkbx product\"]",
    "click {force: true}",
    "contains Delete",
    "click {force: true}",
    "wait 3000",
    "get .p-confirm-dialog-accept > .p-button-icon"
  ]
}
