{
  "specName": "Invoice.js",
  "title": "Check Creating Invoice with already existing invoice",
  "suiteName": "CataogueBuying module tests",
  "testId": "r4",
  "testName": "CataogueBuying module tests Check Creating Invoice with already existing invoice",
  "testError": "Cannot read properties of undefined (reading 'invoice')",
  "testCommands": []
}
