{
  "specName": "catalogue-module.js",
  "title": "CP - Validate the catalogue cover image required",
  "suiteName": "Cataogue module tests",
  "testId": "r10",
  "testName": "Cataogue module tests CP - Validate the catalogue cover image required",
  "testError": "Timed out retrying after 10000ms: expected '[ <button.ui-button-raised.ui-button.ui-widget.ui-state-default.ui-corner-all.ui-button-text-only>, 1 more... ]' not to be 'enabled'",
  "testCommands": [
    "waitUntil {}",
    "contains  Catalogue ",
    "click {force: true}",
    "get [data-test-class=\"btn createCatalogue\"]",
    "click {force: true}",
    "new url http://15.207.101.104:8201/home/procurement/catalogue/create",
    "xhr  GET http://15.207.101.104:8201/api/master-data-service/catalog-kind?page=1&size=10000",
    "get [data-test-class=\"ip name\"]",
    "type Samsung Z",
    "get [data-test-class=\"ip description\"]",
    "clear ",
    "type  catalogue for the tablets",
    "waitUntil {}",
    "get [data-test-class=\"drpdwn catalogueType\"]",
    "click ",
    "get p-dropdownitem > li > span",
    "wrap <span.ng-star-inserted>",
    "click {force: true}",
    "get [data-test-class=\"btn addProduct\"]",
    "click ",
    "get .col-3 > .mr-1 > .ui-button-text",
    "click ",
    "xhr  GET http://15.207.101.104:8201/api/product-service/product?q=name:(%%)&sort=lastModifiedDate,desc&page=1&size=0",
    "get table td",
    "request table td",
    "get [data-test-class=\"td actions\"]",
    "eq 1",
    "click ",
    "get [data-test-class=\"btn submit\"]",
    "assert expected **[ <button.ui-button-raised.ui-button.ui-widget.ui-state-default.ui-corner-all.ui-button-text-only>, 1 more... ]** not to be **enabled**"
  ]
}
