{
  "specName": "Budget.js",
  "title": "CP - Check Reject Budget",
  "suiteName": "Budget module tests",
  "testId": "r9",
  "testName": "Budget module tests CP - Check Reject Budget",
  "testError": "Timed out retrying after 10000ms: Expected to find content: 'BDT3434' but never did.",
  "testCommands": [
    "get #navbarDropdownMenuLink-settings",
    "click ",
    "contains My Tasks",
    "click ",
    "new url http://15.207.101.104:8201/home/settings/my-tasks",
    "xhr  GET http://15.207.101.104:8201/api/workflow-service/my-tasks/?user=21",
    "get a[class=\"ui-paginator-last ui-paginator-element ui-state-default ui-corner-all\"]",
    "eq 0",
    "click {force: true}",
    "wait 2000",
    "contains BDT3434"
  ]
}
