{
  "specName": "Invoice.js",
  "title": "Check Creating Invoice with already existing invoice",
  "suiteName": "CataogueBuying module tests",
  "testId": "r5",
  "testName": "CataogueBuying module tests Check Creating Invoice with already existing invoice",
  "testError": "Timed out retrying after 4050ms: `cy.click()` could not be issued because this element is currently animating:\n\n`<button _ngcontent-wml-c37=\"\" class=\"right-margin-2px left-margin-2px ui-button ui-widget ui-state-default ui-corner-all ui-button-text-icon-left ng-star-inserted\" data-test-class=\"btn createInvoice\" icon=\"fa fa-plus\" label=\"New Invoice\" pbutton=\"\" type=\"button\" ng-reflect-label=\"New Invoice\" ng-reflect-icon=\"fa fa-plus\" style=\"\">...</button>`\n\nYou can fix this problem by:\n  - Passing `{force: true}` which disables all error checking\n  - Passing `{waitForAnimations: false}` which disables waiting on animations\n  - Passing `{animationDistanceThreshold: 20}` which decreases the sensitivity\n\nhttps://on.cypress.io/element-is-animating",
  "testCommands": [
    "wait 3000",
    "get #navbarDropdownMenuLink-solutions",
    "click ",
    "contains  Invoice ",
    "click ",
    "new url http://15.207.101.104:8201/home/invoice/invoices",
    "xhr  GET http://15.207.101.104:8201/api/invoice-service/invoice/?sort=lastModifiedDate,desc&page=1&size=10",
    "contains New Invoice",
    "click "
  ]
}
