{
  "specName": "purchase-order-receive.js",
  "title": "Invalid Search PO number ",
  "suiteName": "Purchase Order receive module tests",
  "testId": "r6",
  "testName": "Purchase Order receive module tests Invalid Search PO number ",
  "testError": "`cy.type()` can only accept a string or number. You passed in: `undefined`",
  "testCommands": [
    "get [type='text']",
    "type "
  ]
}
