{
  "specName": "product-module.js",
  "title": "CP - validate Deletion the product",
  "suiteName": "Application login",
  "testId": "r6",
  "testName": "Application login CP - validate Deletion the product",
  "testError": "`cy.contains()` can only accept a string, number or regular expression.",
  "testCommands": [
    "get #navbarDropdownMenuLink-household",
    "click ",
    "get [routerlink=\"/home/procurement\"]",
    "click ",
    "new url http://15.207.101.104:8201/home/procurement/industry",
    "xhr  GET http://15.207.101.104:8201/api/master-data-service/industry?q=isDeleted:false&sort=lastModifiedDate,desc&page=1&size=10",
    "xhr  GET http://15.207.101.104:8201/api/master-data-service/industry?q=isDeleted:false&sort=lastModifiedDate,desc&page=1&size=10",
    "contains Product",
    "click ",
    "new url http://15.207.101.104:8201/home/procurement/product",
    "xhr  GET http://15.207.101.104:8201/api/product-service/product?sort=lastModifiedDate,desc&page=NaN&size=undefined",
    "contains "
  ]
}
