{
  "specName": "product-module.js",
  "title": "CP - Create Clone product",
  "suiteName": "Application login",
  "testId": "r12",
  "testName": "Application login CP - Create Clone product",
  "testError": "Timed out retrying after 10000ms: Expected to find element: `[data-test-class=\"btn createProduct\"]`, but never found it.",
  "testCommands": [
    "get #navbarDropdownMenuLink-household",
    "click ",
    "get [routerlink=\"/home/procurement\"]",
    "click ",
    "new url http://15.207.101.104:8201/home/procurement/industry",
    "xhr  GET http://15.207.101.104:8201/api/master-data-service/industry?q=isDeleted:false&sort=lastModifiedDate,desc&page=1&size=10",
    "xhr  GET http://15.207.101.104:8201/api/master-data-service/industry?q=isDeleted:false&sort=lastModifiedDate,desc&page=1&size=10",
    "contains Product",
    "click ",
    "new url http://15.207.101.104:8201/home/procurement/product",
    "xhr  GET http://15.207.101.104:8201/api/product-service/product?sort=lastModifiedDate,desc&page=NaN&size=undefined",
    "get [data-test-class=\"td name\"]",
    "eq 0",
    "click ",
    "new url http://15.207.101.104:8201/home/procurement/product/view/38",
    "xhr  GET http://15.207.101.104:8201/api/product-service/product/38",
    "url ",
    "assert expected **http://15.207.101.104:8201/home/procurement/product/view/38** to include **product/view/**",
    "get #navbarDropdownMenuLink-more",
    "click ",
    "contains  Clone Product ",
    "click ",
    "new url http://15.207.101.104:8201/home/procurement/product/clone/38/true",
    "xhr  GET http://15.207.101.104:8201/api/master-data-service/cpv-code?page=1&size=10000",
    "xhr  GET http://15.207.101.104:8201/api/product-service/product-group?page=1&size=10000",
    "xhr  GET http://15.207.101.104:8201/api/master-data-service/cost-account?page=1&size=10000",
    "xhr  GET http://15.207.101.104:8201/api/master-data-service/general-ledger?page=1&size=10000",
    "xhr  GET http://15.207.101.104:8201/api/supplier-service/supplier?page=1&size=10000",
    "xhr  GET http://15.207.101.104:8201/api/product-service/product/38",
    "xhr  GET http://15.207.101.104:8201/api/product-service/product/38",
    "get [data-test-class=\"btn createProduct\"]"
  ]
}
