{
  "specName": "purchase-order.js",
  "title": "Check POR listing screen details",
  "suiteName": "PO reqquisition  module tests",
  "testId": "r3",
  "testName": "PO reqquisition  module tests Check POR listing screen details",
  "testError": "Timed out retrying after 10050ms: `cy.click()` failed because this element is detached from the DOM.\n\n`<td _ngcontent-uae-c34=\"\" class=\"ng-tns-c34-59\" data-test-class=\"td poRequisition\">...</td>`\n\nCypress requires elements be attached in the DOM to interact with them.\n\nThe previous command that ran was:\n\n  > `cy.first()`\n\nThis DOM element likely became detached somewhere between the previous and current command.\n\nCommon situations why this happens:\n  - Your JS framework re-rendered asynchronously\n  - Your app code reacted to an event firing and removed the element\n\nYou typically need to re-query for the element or add 'guards' which delay Cypress from running new commands.",
  "testCommands": [
    "waitUntil {}",
    "get #navbarDropdownMenuLink-solutions",
    "xhr  GET http://15.207.101.104:8201/api/client-user-service/role//16",
    "new url http://15.207.101.104:8201/home/summary-widget/landing-page",
    "xhr  POST http://15.207.101.104:8201/api/supplier-service/supplier-product/get-product-suppliers",
    "xhr  POST http://15.207.101.104:8201/api/supplier-service/supplier-product/get-product-suppliers",
    "xhr  GET http://15.207.101.104:8201/api/invoice-service/invoice/summary",
    "xhr  GET http://15.207.101.104:8201/api/invoice-service/dashboard/stacked-charts/?name=CategoriesBasedInvoiceMatchingStackedChart",
    "xhr  GET http://15.207.101.104:8201/api/invoice-service/dashboard/stacked-charts/?name=DatesBasedInvoiceMatchingStackedChart",
    "click ",
    "contains  Marketplace ",
    "click ",
    "new url http://15.207.101.104:8201/home/procure/catalog",
    "xhr  GET http://15.207.101.104:8201/api/product-service/catalog?sort=lastModifiedDate,desc&page=1&size=100",
    "waitUntil {}",
    "contains  PO Requisition Listing ",
    "click ",
    "new url http://15.207.101.104:8201/home/procure/po-requisitions",
    "xhr  GET http://15.207.101.104:8201/api/client-user-service/user?q=email:shirisha@trimindtech.com&page=1&size=10000",
    "xhr  GET http://15.207.101.104:8201/api/client-user-service/user?q=email:shirisha@trimindtech.com&page=1&size=10000",
    "get .ui-table-thead tr th",
    "log Sl No",
    "log PO Requisition #",
    "get .ui-table-thead tr th",
    "eq 1",
    "assert expected **<th.ng-tns-c34-59>** to contain text **PO Requisition #**",
    "log PO Requisition # Name is available in supplier listing screen",
    "log Created By",
    "log Submitted On",
    "log Total Tax",
    "log Total Amount",
    "log Status",
    "get .ui-table-thead tr th",
    "eq 6",
    "assert expected **<th.ng-tns-c34-59>** to contain text **Status**",
    "log PO  Status column is available",
    "log Actions",
    "get [data-test-class=\"td poRequisition\"]",
    "xhr  GET http://15.207.101.104:8201/api/purchase-order-service/purchase-order-requisition?q=departmentId:1&sort=lastModifiedDate,desc&page=1&size=10",
    "xhr  GET http://15.207.101.104:8201/api/purchase-order-service/purchase-order-requisition?q=departmentId:1&sort=lastModifiedDate,desc&page=1&size=10",
    "first ",
    "click "
  ]
}
