{
  "specName": "catalogue-module.js",
  "title": "Validate the catalogue cover image required",
  "suiteName": "Cataogue module tests",
  "testId": "r10",
  "testName": "Cataogue module tests Validate the catalogue cover image required",
  "testError": "Timed out retrying after 4000ms: Expected to find content: ' Catalogue ' but never did.",
  "testCommands": [
    "waitUntil {}",
    "contains  Catalogue "
  ]
}
