{
  "specName": "purchase-order.js",
  "title": "SP-Validate Delivered PO",
  "suiteName": "Application login",
  "testId": "r6",
  "testName": "Application login SP-Validate Delivered PO",
  "testError": "`cy.visit()` failed trying to load:\n\nhttp://15.207.101.104:8221/\n\nWe attempted to make an http request to this URL but the request failed without a response.\n\nWe received this error at the network level:\n\n  > Error: connect ETIMEDOUT 15.207.101.104:8221\n\nCommon situations why this would fail:\n  - you don't have internet access\n  - you forgot to run / boot your web server\n  - your web server isn't accessible\n  - you have weird network configuration settings on your computer\n\nBecause this error occurred during a `before each` hook we are skipping the remaining tests in the current suite: `Application login`",
  "testCommands": [
    "visit http://15.207.101.104:8221/"
  ]
}
