{
  "specName": "purchase-order.js",
  "title": "SP-Validate the purchase order module",
  "suiteName": "Application login",
  "testId": "r3",
  "testName": "Application login SP-Validate the purchase order module",
  "testError": "Timed out retrying after 10050ms: `cy.click()` failed because this element is not visible:\n\n`<a _ngcontent-gtp-c20=\"\" data-test-class=\"href logOut\" class=\"dropdown-item\" style=\"cursor: pointer;\">Log Out</a>`\n\nThis element `<a.dropdown-item>` is not visible because its parent `<div.dropdown-menu.dropdown-menu-end>` has CSS property: `display: none`\n\nFix this problem, or use `{force: true}` to disable error checking.\n\nBecause this error occurred during a `after each` hook we are skipping the remaining tests in the current suite: `Application login`",
  "testCommands": [
    "visit http://15.207.101.104:8221/",
    "get :nth-child(1) > .form-control",
    "clear ",
    "type shirisha.k@trimindtech.com",
    "assert expected **<input.form-control.lowercase.ng-untouched.ng-dirty.ng-valid>** to have value **shirisha.k@trimindtech.com**",
    "get :nth-child(2) > .form-control",
    "clear ",
    "type test12345",
    "get .btn",
    "click ",
    "xhr  POST http://15.207.101.104:8221/api/supplier-user-service/user/auth",
    "title ",
    "assert expected **EProcure - Supplier Portal** to equal **EProcure - Supplier Portal**",
    "log ** User logged in to account **",
    "url ",
    "assert expected **http://15.207.101.104:8221/login** to include **dashboard**",
    "xhr  GET http://15.207.101.104:8221/api/client-user-service/role//16",
    "new url http://15.207.101.104:8221/dashboard",
    "get preloader",
    "assert expected **preloader** not to exist in the DOM",
    "contains Orders",
    "click ",
    "new url http://15.207.101.104:8221/orders/purchase-orders",
    "xhr  GET http://15.207.101.104:8221/api/supplier-procurement-service/purchase-order?q=isDeleted:false&sort=lastModifiedDate,id,desc&page=1&size=10",
    "xhr  GET http://15.207.101.104:8221/api/supplier-procurement-service/purchase-order?q=isDeleted:false&sort=lastModifiedDate,id,desc&page=1&size=10",
    "get .p-dropdown-trigger",
    "click ",
    "get p-dropdownitem li",
    "contains Waiting Delivery",
    "click ",
    "xhr  GET http://15.207.101.104:8221/api/supplier-procurement-service/purchase-order?q=deliveryAction:WAITING_DELIVERY,isDeleted:false&sort=lastModifiedDate,id,desc&page=1&size=10"
  ]
}
