{
  "specName": "catalog-buying.js",
  "title": "CP - Check Checkout button without providing required fields",
  "suiteName": "CataogueBuying module tests",
  "testId": "r6",
  "testName": "CataogueBuying module tests CP - Check Checkout button without providing required fields",
  "testError": "`cy.type()` failed because it targeted a disabled element.\n\nThe element typed into was:\n\n  > <input type=\"text\" class=\"ui-spinner-input ui-inputtext ui-widget ui-state-default ui-corner-all\" ng-reflect-ng-class=\"ui-spinner-input ui-inputtext \">\n\nEnsure the element does not have an attribute named `disabled` before typing into it.",
  "testCommands": [
    "wait 5000",
    "contains  Marketplace ",
    "click {force: true}",
    "new url http://15.207.101.104:8201/home/procure/catalog",
    "xhr  GET http://15.207.101.104:8201/api/product-service/catalog?sort=lastModifiedDate,desc&page=1&size=100",
    "wait 6000",
    "contains Samsung mobiles",
    "click ",
    "new url http://15.207.101.104:8201/home/po-requisition/product-list/28",
    "xhr  GET http://15.207.101.104:8201/api/product-service/catalog/28",
    "xhr  GET http://15.207.101.104:8201/api/master-data-service/industry?page=1&size=10",
    "xhr  GET http://15.207.101.104:8201/api/master-data-service/commodity?page=1&size=10",
    "xhr  GET http://15.207.101.104:8201/api/master-data-service/material-group?page=1&size=10",
    "xhr  GET http://15.207.101.104:8201/api/product-service/product-group?page=1&size=10",
    "xhr  GET http://15.207.101.104:8201/api/product-service/product/product-catalog/28",
    "wait 6000",
    "wait 3000",
    "contains Samsung Z Flip3 5G",
    "wait 3000",
    "contains Samsung Z Flip3 5G",
    "parent ",
    "parent ",
    "parent ",
    "parent ",
    "children :nth-child(3)",
    "children :nth-child(2)",
    "click ",
    "get .ui-spinner-input",
    "clear "
  ]
}
