{
  "specName": "purchase-order.js",
  "title": "Create POR to Reject",
  "suiteName": "CataogueBuying module tests",
  "testId": "r5",
  "testName": "CataogueBuying module tests Create POR to Reject",
  "testError": "Timed out retrying after 4000ms: Expected to find content: 'lenovo' but never did.",
  "testCommands": [
    "wait 3000",
    "get #navbarDropdownMenuLink-solutions",
    "click ",
    "contains  Marketplace ",
    "click ",
    "new url http://15.207.101.104:8201/home/procure/catalog",
    "xhr  GET http://15.207.101.104:8201/api/product-service/catalog?sort=lastModifiedDate,desc&page=1&size=100",
    "wait 6000",
    "contains lenovo"
  ]
}
