{
  "specName": "purchase-order.js",
  "title": "Validate the POR listing screen",
  "suiteName": "CataogueBuying module tests",
  "testId": "r3",
  "testName": "CataogueBuying module tests Validate the POR listing screen",
  "testError": "Timed out retrying after 4000ms: expected '<td.ng-tns-c34-59>' to contain text 'PENDING_APPROVAL', but the text was ' APPROVED '",
  "testCommands": [
    "wait 6000",
    "xhr  GET http://15.207.101.104:8201/api/client-user-service/role//16",
    "new url http://15.207.101.104:8201/home/summary-widget/landing-page",
    "xhr  POST http://15.207.101.104:8201/api/supplier-service/supplier-product/get-product-suppliers",
    "xhr  POST http://15.207.101.104:8201/api/supplier-service/supplier-product/get-product-suppliers",
    "xhr  GET http://15.207.101.104:8201/api/invoice-service/invoice/summary",
    "xhr  GET http://15.207.101.104:8201/api/invoice-service/dashboard/stacked-charts/?name=CategoriesBasedInvoiceMatchingStackedChart",
    "xhr  GET http://15.207.101.104:8201/api/invoice-service/dashboard/stacked-charts/?name=DatesBasedInvoiceMatchingStackedChart",
    "get #navbarDropdownMenuLink-solutions",
    "click ",
    "contains  Marketplace ",
    "click ",
    "new url http://15.207.101.104:8201/home/procure/catalog",
    "xhr  GET http://15.207.101.104:8201/api/product-service/catalog?sort=lastModifiedDate,desc&page=1&size=100",
    "wait 2000",
    "contains  PO Requisition Listing ",
    "click ",
    "new url http://15.207.101.104:8201/home/procure/po-requisitions",
    "xhr  GET http://15.207.101.104:8201/api/client-user-service/user?q=email:roja.malladi@trimindtech.com&page=1&size=10000",
    "xhr  GET http://15.207.101.104:8201/api/client-user-service/user?q=email:roja.malladi@trimindtech.com&page=1&size=10000",
    "wait 3000",
    "xhr  GET http://15.207.101.104:8201/api/purchase-order-service/purchase-order-requisition?q=departmentId:1&sort=lastModifiedDate,desc&page=1&size=10",
    "xhr  GET http://15.207.101.104:8201/api/purchase-order-service/purchase-order-requisition?q=departmentId:1&sort=lastModifiedDate,desc&page=1&size=10",
    "get table",
    "assert expected **[ Array(10) ]** not to be empty",
    "get thead >tr>th:nth-child(2)",
    "assert expected **<th.ng-tns-c34-59>** to contain text **PO Requisition #**",
    "get thead >tr>th:nth-child(3)",
    "assert expected **<th.ng-tns-c34-59>** to contain text **Created By**",
    "get thead >tr>th:nth-child(4)",
    "assert expected **<th.ng-tns-c34-59>** to contain text **Submitted On**",
    "get thead th:nth-child(5)",
    "assert expected **<th.ng-tns-c34-59>** to contain text **Total Tax**",
    "get thead th:nth-child(6)",
    "assert expected **<th.ng-tns-c34-59>** to contain text **Total Amount**",
    "get thead th:nth-child(7)",
    "assert expected **<th.ng-tns-c34-59>** to contain text **Status**",
    "get thead >tr>th:nth-child(8)",
    "assert expected **<th.ng-tns-c34-59>** to contain text **Actions**",
    "get .ui-table-tbody > :nth-child(1) > :nth-child(7)",
    "assert expected **'<td.ng-tns-c34-59>'** to contain text **'PENDING_APPROVAL'**, but the text was **'&nbsp;APPROVED&nbsp;'**"
  ]
}
