{
  "specName": "supplier-module.js",
  "title": "CP - Check user able to create supplier",
  "suiteName": "Supplier module tests",
  "testId": "r4",
  "testName": "Supplier module tests CP - Check user able to create supplier",
  "testError": "Timed out retrying after 10000ms: Expected to find element: `.p-confirm-dialog-message`, but never found it.",
  "testCommands": [
    "waitUntil {}",
    "get #navbarDropdownMenuLink-solutions",
    "click ",
    "get [routerlink=\"/home/supplier\"]",
    "click ",
    "new url http://15.207.101.104:8201/home/supplier/suppliers",
    "contains  Suppliers ",
    "click ",
    "contains New Supplier",
    "click ",
    "new url http://15.207.101.104:8201/home/supplier/supplier/create",
    "xhr  GET http://15.207.101.104:8201/api/master-data-service/commodity?page=1&size=10000",
    "xhr  GET http://15.207.101.104:8201/api/master-data-service/kraljic-portfolio?page=1&size=10000",
    "get #name",
    "type adidas",
    "get #email",
    "type adidas@trimindtech.com",
    "get #site",
    "type www.adidas.com",
    "get #startDate > .ui-calendar > .ui-inputtext",
    "click ",
    "get #startDate  td",
    "wrap <td.ng-tns-c33-62.ui-datepicker-today.ng-star-inserted>",
    "click ",
    "get #endDate > .ui-calendar > .ui-inputtext",
    "click ",
    "get #endDate  td",
    "wrap <td.ng-tns-c33-63.ng-star-inserted>",
    "click ",
    "contains Contact Person",
    "click ",
    "wait 2000",
    "get #isPrimary",
    "click ",
    "wait 6000",
    "get :nth-child(2) > #name",
    "type shirisha",
    "get :nth-child(4) > #email",
    "click ",
    "type shirisha@trimindtech.com",
    "get #phone",
    "type 991223424",
    "wait 6000",
    "get button[label='Add']",
    "assert expected **<button.ui-button-raised.right-margin-2px.left-margin-2px.ui-button.ui-widget.ui-state-default.ui-corner-all.ui-button-text-only>** to be **enabled**",
    "get button[label='Add']",
    "click ",
    "contains Business Address",
    "click ",
    "get #address1",
    "type Hyderabad",
    "get #city1",
    "type Hyderabad",
    "get #country1",
    "type India",
    "get #postalCode1",
    "type 97239",
    "contains Mailing Address",
    "click ",
    "get #address2",
    "type Hyderabad",
    "get #city2",
    "type Hyderabad",
    "get #country2",
    "type India",
    "get #postalCode2",
    "type 97239",
    "get [label=\"Save\"] > .ui-button-text",
    "click ",
    "xhr  POST http://15.207.101.104:8201/api/supplier-service/supplier",
    "get .p-confirm-dialog-message",
    "assert expected **.p-confirm-dialog-message** to have text **Supplier Created successfully!**, but the text was **''**"
  ]
}
