{
  "specName": "purchase-order-receive.js",
  "title": "Validate the catalogueBuying screen details ",
  "suiteName": "Purchase Order receive module tests",
  "testId": "r3",
  "testName": "Purchase Order receive module tests Validate the catalogueBuying screen details ",
  "testError": "`cy.click()` failed because it requires a DOM element.\n\nThe subject received was:\n\n  > `undefined`\n\nThe previous command that ran was:\n\n  > `cy.get()`",
  "testCommands": [
    "get #navbarDropdownMenuLink-solutions",
    "click "
  ]
}
