{
  "specName": "product-module.js",
  "title": "CP - Validate the Product Name required ",
  "suiteName": "Application login",
  "testId": "r11",
  "testName": "Application login CP - Validate the Product Name required ",
  "testError": "Timed out retrying after 4000ms: Expected to find element: `:nth-child(2)`, but never found it. Queried from element: <div.row>",
  "testCommands": [
    "get #name",
    "click ",
    "get #name",
    "clear ",
    "get #description",
    "click ",
    "get #name",
    "parent ",
    "children :nth-child(2)",
    "assert expected **:nth-child(2)** to have text **undefined**, but the text was **''**"
  ]
}
