{
  "specName": "product-module.js",
  "title": "CP - validate Deletion the product",
  "suiteName": "Application login",
  "testId": "r5",
  "testName": "Application login CP - validate Deletion the product",
  "testError": "Timed out retrying after 10000ms: Expected to find content: 'Samsung Galaxy Tab A7' but never did.",
  "testCommands": [
    "get #navbarDropdownMenuLink-household",
    "click ",
    "get [routerlink=\"/home/procurement\"]",
    "click ",
    "new url http://15.207.101.104:8201/home/procurement/industry",
    "get preloader",
    "assert expected **preloader** not to exist in the DOM",
    "get [data-test-class=\"href procurement\"]",
    "click {force: true}",
    "contains Samsung Galaxy Tab A7"
  ]
}
